{
  "params": {
    "updates_per_step": 10,
    "gravitational_constant": 39.5,
    "space_size": 4,
    "terminal_velocity": -1,
    "num_cells": 100,
    "seed": 100,
    "random_bodies": 100,
    "min_random_mass": 0.01,
    "max_random_mass": 1,
    "min_random_density": 1,
    "max_random_density": 5,
    "max_random_velocity": 20
  },
  "simulation": {
    "total_steps": 7200,
    "step_size": 0.0000138889,
    "write_state_files": false
  },
  "visuals": {
    "steps_per_second": 60,
    "frames_per_step": 1,
    "record": false,
    "keep_last_frame": true,
    "visibility": true,
    "auto_close": false,
    "show_fps": false,
    "border_size": 16,
    "functions": [
      {
        "context": "@",
        "function_name": "print",
        "args": [
          "`parent`.`len` - 1"
        ]
      },
      {
        "context": "bodies[*]",
        "module_name": "celestial_system",
        "function_name": "get_pixel_radius",
        "args": [
          "@",
          640,
          "$.config.params.space_size",
          8
        ],
        "return_attribute": "pixel_radius"
      },
      {
        "context": "bodies[*]",
        "function_name": "map",
        "args": [
          "pos",
          [0, 0],
          [
            "$.config.params.space_size",
            "$.config.params.space_size"
          ],
          [0, 0],
          [640, 640]
        ],
        "return_attribute": "mapped_pos" 
      },
      {
        "context": "bodies[*]",
        "function_name": "magnitude",
        "args": [
          "vel"
        ],
        "return_attribute": "speed" 
      },
      {
        "context": "bodies[*]",
        "function_name": "index_to_color",
        "args": [
          "id",
          "`parent`.`parent`.`parent`[0].bodies.`len`"
        ],
        "return_attribute": "color"
      }
    ],
    "plots": [
      {
        "width": 640,
        "height": 640,
        "background_color": "black",
        "prefabs": [
          {
            "name": "scatter",
            "context": {
              "data": "bodies[*].mapped_pos #all",
              "radii": "bodies[*].pixel_radius #all",
              "colors": "bodies[*].color #all"
            }
          },
          {
            "name": "axes",
            "context": {
              "border_size": 32,
              "length": 640,
              "min_x": 0,
              "max_x": "$.config.params.space_size",
              "min_y": 0,
              "max_y": "$.config.params.space_size",
              "color": "'white'",
              "font_size": 8
            }
          }
        ],
        "shapes": [
          {
            "context": "bodies[*]",
            "type": "line",
            "args": {
              "position": "mapped_pos",
              "vector": "vel",
              "width": 1,
              "color": "'white'"
            }
          }
        ]
      },
      {
        "width": 320,
        "height": 640,
        "x": 640,
        "y": 0,
        "prefabs": [
          {
            "name": "histogram",
            "context": {
              "data": "bodies[*].speed #all",
              "width": 320,
              "scale": 5,
              "colors": "bodies[*].color #all"
            }
          }
        ]
      }
    ]
  }
}
