{
  "name": "axes",
  "shapes": [
    {
      "context": "$",
      "type": "line",
      "args": {
        "color": "color",
        "position": ["border_size", "border_size"],
        "vector": ["@.length - 2 * @.border_size", 0]
      }
    },
    {
      "context": "$",
      "type": "line",
      "args": {
        "color": "color",
        "position": ["border_size", "border_size"],
        "vector": [0, "@.length - 2 * @.border_size"]
      }
    },

    {
      "context": "$",
      "type": "line",
      "args": {
        "color": "color",
        "position": ["border_size", "@.length - @.border_size"],
        "vector": ["@.border_size * 0.3", "@.border_size * -0.3"]
      }
    },
    {
      "context": "$",
      "type": "line",
      "args": {
        "color": "color",
        "position": ["@.length - @.border_size", "border_size"],
        "vector": ["@.border_size * -0.3", "@.border_size * -0.3"]
      }
    },

    {
      "context": "$",
      "type": "line",
      "args": {
        "color": "color",
        "position": ["@.length - @.border_size", "border_size"],
        "vector": ["@.border_size * -0.3", "@.border_size * 0.3"]
      }
    },
    {
      "context": "$",
      "type": "line",
      "args": {
        "color": "color",
        "position": ["border_size", "@.length - @.border_size"],
        "vector": ["@.border_size * -0.3", "@.border_size * -0.3"]
      }
    },

    {
      "context": "$",
      "type": "text",
      "args": {
        "color": "color",
        "position": [0, "border_size"],
        "text": "min_y",
        "width": "@.border_size - 2",
        "height": "border_size",
        "align": "'right'",
        "font_size": "font_size"
      }
    },
    {
      "context": "$",
      "type": "text",
      "args": {
        "color": "color",
        "position": [0, "@.length * 0.5"],
        "text": "(@.max_y + @.min_y) * 0.5",
        "width": "@.border_size - 2",
        "height": "border_size",
        "align": "'right'",
        "font_size": "font_size"
      }
    },
    {
      "context": "$",
      "type": "text",
      "args": {
        "color": "color",
        "position": [0, "@.length - @.border_size"],
        "text": "max_y",
        "width": "@.border_size - 2",
        "height": "border_size",
        "align": "'right'",
        "font_size": "font_size"
      }
    },

    {
      "context": "$",
      "type": "text",
      "args": {
        "color": "color",
        "position": ["border_size", "@.border_size"],
        "anchor": [0, 0.5],
        "text": "min_x",
        "width": "border_size",
        "height": "border_size",
        "font_size": "font_size"
      }
    },
    {
      "context": "$",
      "type": "text",
      "args": {
        "color": "color",
        "position": ["@.length * 0.5", "@.border_size"],
        "anchor": [0, 0.5],
        "text": "(@.max_x + @.min_x) * 0.5",
        "width": "border_size",
        "height": "border_size",
        "font_size": "font_size"
      }
    },
    {
      "context": "$",
      "type": "text",
      "args": {
        "color": "color",
        "position": ["@.length - @.border_size", "@.border_size"],
        "anchor": [0, 0.5],
        "text": "max_x",
        "width": "border_size",
        "height": "border_size",
        "font_size": "font_size"
      }
    }

  ]
}